…
    Subsetting GBR features by Whitsunday

``` r
#Checking results of query
whitsundays
```

    Simple feature collection with 42 features and 7 fields
    Geometry type: POLYGON
    Dimension:     XY
    Bounding box:  xmin: 148.9111 ymin: -20.32891 xmax: 149.0637 ymax: -20.15519
    Geodetic CRS:  GDA94
    # A tibble: 42 × 8
       UNIQUE_ID   GBR_NAME   LOC_NAME_S                  geometry FEAT_NAME LEVEL_1
     * <chr>       <chr>      <chr>                  <POLYGON [°]> <chr>     <chr>  
     1 20041111104 Whitsunda… Whitsunda… ((148.9313 -20.29419, 14… Reef      Reef   
     2 20041124104 Whitsunda… Whitsunda… ((149.0355 -20.30176, 14… Reef      Reef   
     3 20041103104 Whitsunda… Whitsunda… ((148.9969 -20.23033, 14… Reef      Reef   
     4 20041121104 Whitsunda… Whitsunda… ((148.9929 -20.30349, 14… Reef      Reef   
     5 20041119104 Whitsunda… Whitsunda… ((148.9694 -20.32657, 14… Reef      Reef   
     6 20041118104 Whitsunda… Whitsunda… ((148.9614 -20.15612, 14… Reef      Reef   
     7 20041113104 Whitsunda… Whitsunda… ((148.933 -20.26951, 148… Reef      Reef   
     8 20041108104 Whitsunda… Whitsunda… ((148.9859 -20.31167, 14… Reef      Reef   
     9 20041109104 Whitsunda… Whitsunda… ((148.9579 -20.30375, 14… Reef      Reef   
    10 20041104104 Whitsunda… Whitsunda… ((149.0111 -20.23419, 14… Reef      Reef   
    # ℹ 32 more rows
    # ℹ 2 more variables: LEVEL_2 <chr>, LEVEL_3 <chr>
…
