…
    ## Subsetting GBR features by u/n reef

``` r
#Checking results
un_reefs
```

    ## Simple feature collection with 4101 features and 3 fields
    ## Geometry type: POLYGON
    ## Dimension:     XY
    ## Bounding box:  xmin: 141.1284 ymin: -24.43007 xmax: 153.1677 ymax: -8.965184
    ## Geodetic CRS:  WGS 84
    ## # A tibble: 4,101 × 4
    ##    UNIQUE_ID   GBR_NAME LOC_NAME_S                                      geometry
    ##  * <chr>       <chr>    <chr>                                      <POLYGON [°]>
    ##  1 09361104104 U/N Reef U/N Reef (09-361d) ((143.2286 -9.263747, 143.2286 -9.26…
    ##  2 09361104100 U/N Reef U/N Reef (09-361)  ((143.2367 -9.267288, 143.2377 -9.26…
    ##  3 09361104102 U/N Reef U/N Reef (09-361b) ((143.2341 -9.259977, 143.232 -9.259…
    ##  4 09361104103 U/N Reef U/N Reef (09-361c) ((143.2284 -9.260164, 143.2287 -9.25…
    ##  5 09361104105 U/N Reef U/N Reef (09-361e) ((143.2196 -9.257815, 143.2199 -9.25…
    ##  6 09361104106 U/N Reef U/N Reef (09-361f) ((143.2299 -9.256957, 143.2299 -9.25…
    ##  7 09361104101 U/N Reef U/N Reef (09-361a) ((143.2398 -9.260512, 143.2399 -9.26…
    ##  8 09354104100 U/N Reef U/N Reef (09-354)  ((143.1372 -9.261412, 143.1374 -9.26…
    ##  9 09359104100 U/N Reef U/N Reef (09-359)  ((143.2262 -9.272064, 143.2262 -9.27…
    ## 10 09363104109 U/N Reef U/N Reef (09-363i) ((143.2719 -9.323137, 143.2715 -9.32…
    ## # ℹ 4,091 more rows
…
