…
## Extracting data about recreational activities

We can now use our metadata table to find the variables of interest.

``` r
#Searching for matches
rec <- table %>% 
  filter(str_detect(str_to_lower(new_name), "waterway rec"))

#Checking results
rec
```

    ## # A tibble: 65 × 3
    ##    description                                                    new_name field
    ##    <chr>                                                          <chr>    <chr>
    ##  1 W9_1 - Fishing                                                 w9_1 - … w9_1 
    ##  2 W9_2 - Boating or sailing                                      w9_2 - … w9_2 
    ##  3 W9_3 - Snorkelling/freediving/Scuba diving                     w9_3 - … w9_3 
    ##  4 W9_4 - Motor-powered water sports (e.g. water skiing, jet ski) w9_4 - … w9_4 
    ##  5 W9_5 - Wind-powered water sports (e.g. kite surfing)           w9_5 - … w9_5 
    ##  6 W9_6 - Paddling/canoeing/kayaking                              w9_6 - … w9_6 
    ##  7 W9_7 - Camping                                                 w9_7 - … w9_7 
    ##  8 W9_8 - Swimming                                                w9_8 - … w9_8 
    ##  9 W9_9 - Picnics and barbeques                                   w9_9 - … w9_9 
    ## 10 W9_10 - Exercising/hiking/biking/running                       w9_10 -… w9_10
    ## # ℹ 55 more rows
…
``` r
rec <- rec %>% 
  #Creating a new column for each activity
  separate(description, c("q_number", "activity"), sep = " - ") %>% 
  #Extracting region from new_name column (upper case letters between - and ONLY)
  mutate(region = str_extract(new_name, "- (.+) ONLY -", group = 1)) %>% 
  #We will only keep columns that are useful for us
  select(activity, field, region)

#Checking results
rec
```

    ## # A tibble: 65 × 3
    ##    activity                                                field region     
    ##    <chr>                                                   <chr> <chr>      
    ##  1 Fishing                                                 w9_1  WET TROPICS
    ##  2 Boating or sailing                                      w9_2  WET TROPICS
    ##  3 Snorkelling/freediving/Scuba diving                     w9_3  WET TROPICS
    ##  4 Motor-powered water sports (e.g. water skiing, jet ski) w9_4  WET TROPICS
    ##  5 Wind-powered water sports (e.g. kite surfing)           w9_5  WET TROPICS
    ##  6 Paddling/canoeing/kayaking                              w9_6  WET TROPICS
    ##  7 Camping                                                 w9_7  WET TROPICS
    ##  8 Swimming                                                w9_8  WET TROPICS
    ##  9 Picnics and barbeques                                   w9_9  WET TROPICS
    ## 10 Exercising/hiking/biking/running                        w9_10 WET TROPICS
    ## # ℹ 55 more rows
…
Using the metadata table we loaded towards the beginning of this
notebook, we will find the survey questions that cover perceived
waterway health.

``` r
#Searching for matches
health <- table %>%
  filter(str_detect(str_to_lower(new_name), "perceived health"))

#Checking results
health
```

    ## # A tibble: 53 × 3
    ##    description                                             new_name        field
    ##    <chr>                                                   <chr>           <chr>
    ##  1 W13_1 - Freshwater creeks and rivers                    w13_1 - WET TR… w13_1
    ##  2 W13_2 - Freshwater lakes, dams and wetlands             w13_2 - WET TR… w13_2
    ##  3 W13_3 - Estuaries (including mangroves and saltmarshes) w13_3 - WET TR… w13_3
    ##  4 W13_4 - Beaches and the coast                           w13_4 - WET TR… w13_4
    ##  5 W13_5 - Seagrass                                        w13_5 - WET TR… w13_5
    ##  6 W13_6 - Inshore coral reefs                             w13_6 - WET TR… w13_6
    ##  7 W13_7 - Offshore coral reefs                            w13_7 - WET TR… w13_7
    ##  8 W13_8 - Ocean and sea                                   w13_8 - WET TR… w13_8
    ##  9 T13_1 - Freshwater creeks and rivers                    t13_1 - TOWNSV… t13_1
    ## 10 T13_2 - Freshwater lakes, dams and wetlands             t13_2 - TOWNSV… t13_2
    ## # ℹ 43 more rows
…
#Checking results
health
```

    ## # A tibble: 30 × 3
    ##    area                                            field       region     
    ##    <chr>                                           <chr>       <chr>      
    ##  1 Freshwater creeks and rivers                    w13_1-label WET TROPICS
    ##  2 Freshwater lakes, dams and wetlands             w13_2-label WET TROPICS
    ##  3 Estuaries (including mangroves and saltmarshes) w13_3-label WET TROPICS
    ##  4 Beaches and the coast                           w13_4-label WET TROPICS
    ##  5 Seagrass                                        w13_5-label WET TROPICS
    ##  6 Inshore coral reefs                             w13_6-label WET TROPICS
    ##  7 Offshore coral reefs                            w13_7-label WET TROPICS
    ##  8 Ocean and sea                                   w13_8-label WET TROPICS
    ##  9 Freshwater creeks and rivers                    t13_1-label TOWNSVILLE 
    ## 10 Freshwater lakes, dams and wetlands             t13_2-label TOWNSVILLE 
    ## # ℹ 20 more rows
…
``` r
#Keywords representing questions of interest
keys <- paste("science", "institutions", "management", "access", "fair", "influence", sep = "|",collapse = "|")

govern <- table %>%
  #Searching for matches - We will use "18_" as a keyword
  filter(str_detect(field, "18_")) %>% 
  #Second filter with keywords
  filter(str_detect(description, keys))

#Checking results
govern
```

    ## # A tibble: 30 × 3
    ##    description                                                    new_name field
    ##    <chr>                                                          <chr>    <chr>
    ##  1 W18_7 - I think that decisions about managing local waterways… w18_7 -… w18_7
    ##  2 W18_8 - I do not have fair access to all the waterways in my … w18_8 -… w18_8
    ##  3 W18_9 - I feel I personally have some influence over how loca… w18_9 -… w18_9
    ##  4 W18_10 - I feel able to have input into the management of wat… w18_10 … w18_…
    ##  5 W18_11 - I trust the information I receive from institutions … w18_11 … w18_…
    ##  6 W18_12 - I trust the science about waterway health and manage… w18_12 … w18_…
    ##  7 T18_7 - I think that decisions about managing local waterways… t18_7 -… t18_7
    ##  8 T18_8 - I do not have fair access to all the waterways in my … t18_8 -… t18_8
    ##  9 T18_9 - I feel I personally have some influence over how loca… t18_9 -… t18_9
    ## 10 T18_10 - I feel able to have input into the management of wat… t18_10 … t18_…
    ## # ℹ 20 more rows
…
#Checking results
govern
```

    ## # A tibble: 30 × 3
    ##    question                        field  region     
    ##    <chr>                           <chr>  <chr>      
    ##  1 " DECISIONS ARE MADE FAIRLY"    w18_7  WET TROPICS
    ##  2 " DONT HAVE FAIR ACCESS"        w18_8  WET TROPICS
    ##  3 " SOME PERSONAL INFLUENCE"      w18_9  WET TROPICS
    ##  4 " ABLE TO HAVE INPUT"           w18_10 WET TROPICS
    ##  5 " TRUST INFO FROM INSTITUTIONS" w18_11 WET TROPICS
    ##  6 " TRUST THE SCIENCE"            w18_12 WET TROPICS
    ##  7 " DECISIONS ARE MADE FAIRLY"    t18_7  TOWNSVILLE 
    ##  8 " DONT HAVE FAIR ACCESS"        t18_8  TOWNSVILLE 
    ##  9 " SOME PERSONAL INFLUENCE"      t18_9  TOWNSVILLE 
    ## 10 " ABLE TO HAVE INPUT"           t18_10 TOWNSVILLE 
    ## # ℹ 20 more rows
…
    ## `summarise()` has grouped output by 'region'. You can override using the
    ## `.groups` argument.

``` r
#Checking results
governance
```

    ## # A tibble: 30 × 7
    ## # Groups:   question [6]
    ##    region    question         agree_mean agree_sd respondent agree_se order_plot
    ##    <chr>     <chr>                 <dbl>    <dbl>      <dbl>    <dbl>      <dbl>
    ##  1 Fitzroy   " ABLE TO HAVE …       4.98     2.36        467   0.109        5.00
    ##  2 Fitzroy   " DECISIONS ARE…       5.55     2.16        467   0.0999       5.52
    ##  3 Fitzroy   " DONT HAVE FAI…       4.35     2.48        467   0.115        4.41
    ##  4 Fitzroy   " SOME PERSONAL…       4.29     2.34        467   0.108        4.27
    ##  5 Fitzroy   " TRUST INFO FR…       5.94     2.30        467   0.107        6.02
    ##  6 Fitzroy   " TRUST THE SCI…       6.65     2.45        467   0.113        6.8 
    ##  7 Gladstone " ABLE TO HAVE …       5.53     2.29        563   0.0967       5.00
    ##  8 Gladstone " DECISIONS ARE…       6.09     2.05        563   0.0863       5.52
    ##  9 Gladstone " DONT HAVE FAI…       4.02     2.39        563   0.101        4.41
    ## 10 Gladstone " SOME PERSONAL…       4.59     2.24        563   0.0945       4.27
    ## # ℹ 20 more rows
…
#Checking results
fav_water
```

    ## # A tibble: 957 × 2
    ##    waterways              n
    ##    <chr>              <int>
    ##  1 ross river            93
    ##  2 fitzroy river         83
    ##  3 strand                81
    ##  4 crystal creek         45
    ##  5 beach                 43
    ##  6 great barrier reef    28
    ##  7 magnetic island       28
    ##  8 pioneer river         27
    ##  9 stoney creek          24
    ## 10 causeway lake         22
    ## # ℹ 947 more rows
…
