…
As an example, we will look for people born overseas. We will use a
partial match using the `str_detect` function from the `stringr`
package. We will also force the contents in the `DESCRIPTION` column to
be set to lower case to avoid missing any rows where the keyword may be
capitalised.

``` r
table %>% 
  filter(str_detect(str_to_lower(DESCRIPTION), "overseas"))
```

    ## # A tibble: 74 × 4
    ##    DESCRIPTION                              UNIT   MULTIPLIER CODE     
    ##    <chr>                                    <chr>  <chr>      <chr>    
    ##  1 Persons born overseas: 40-44 years       Number <NA>       AGEMIG_10
    ##  2 Persons born overseas: 45-49 years       Number <NA>       AGEMIG_11
    ##  3 Persons born overseas: 50-54 years       Number <NA>       AGEMIG_12
    ##  4 Persons born overseas: 55-59 years       Number <NA>       AGEMIG_13
    ##  5 Persons born overseas: 60-64 years       Number <NA>       AGEMIG_14
    ##  6 Persons born overseas: 65-69 years       Number <NA>       AGEMIG_15
    ##  7 Persons born overseas: 70-74 years       Number <NA>       AGEMIG_16
    ##  8 Persons born overseas: 75-79 years       Number <NA>       AGEMIG_17
    ##  9 Persons born overseas: 80-84 years       Number <NA>       AGEMIG_18
    ## 10 Persons born overseas: 85 years and over Number <NA>       AGEMIG_19
    ## # ℹ 64 more rows
…
In addition to the columns identified above, we will also keep the
columns identifying the date the data was collected (`TIME_PERIOD`), the
LGAs where it was collected (`REGION_CODE` and `REGION_NAME`), and the
`geometry` because this column will allow us to create maps later.

``` r
qld_lgas_sub <- qld_lgas %>% 
  select(TIME_PERIOD, REGION_CODE, REGION_NAME, ERP_17, ERP_23, ERP_P_20,
         EQUIV_2, starts_with("ERP_F_") | starts_with("ERP_M_"), geometry)

qld_lgas_sub
```

    ## # A tibble: 616 × 82
    ##    TIME_PERIOD REGION_CODE REGION_NAME   ERP_17 ERP_23 ERP_P_20 EQUIV_2 ERP_F_10
    ##          <int>       <int> <chr>          <dbl>  <dbl>    <dbl>   <dbl>    <dbl>
    ##  1        2011       30250 Aurukun           NA     NA       NA     348       NA
    ##  2        2011       30300 Balonne           NA     NA       NA     669       NA
    ##  3        2011       30370 Banana            NA     NA       NA     852       NA
    ##  4        2011       30410 Barcaldine        NA     NA       NA     676       NA
    ##  5        2011       30450 Barcoo            NA     NA       NA     752       NA
    ##  6        2011       30760 Blackall Tam…     NA     NA       NA     600       NA
    ##  7        2011       30900 Boulia            NA     NA       NA     703       NA
    ##  8        2011       31000 Brisbane          NA     NA       NA     951       NA
    ##  9        2011       31750 Bulloo            NA     NA       NA     720       NA
    ## 10        2011       31820 Bundaberg         NA     NA       NA     550       NA
    ## # ℹ 606 more rows
    ## # ℹ 74 more variables: ERP_F_11 <dbl>, ERP_F_12 <dbl>, ERP_F_13 <dbl>,
    ## #   ERP_F_14 <dbl>, ERP_F_15 <dbl>, ERP_F_16 <dbl>, ERP_F_17 <dbl>,
    ## #   ERP_F_18 <dbl>, ERP_F_19 <dbl>, ERP_F_2 <dbl>, ERP_F_20 <dbl>,
    ## #   ERP_F_21 <dbl>, ERP_F_22 <dbl>, ERP_F_23 <dbl>, ERP_F_24 <dbl>,
    ## #   ERP_F_25 <dbl>, ERP_F_26 <dbl>, ERP_F_27 <dbl>, ERP_F_28 <dbl>,
    ## #   ERP_F_29 <dbl>, ERP_F_3 <dbl>, ERP_F_30 <dbl>, ERP_F_31 <dbl>, …
…
#See result
qld_2021
```

    ## # A tibble: 78 × 7
    ##    REGION_NAME    REGION_CODE tot_population female_per male_per working_age_per
    ##    <chr>                <int>          <dbl>      <dbl>    <dbl>           <dbl>
    ##  1 Aurukun              30250           1131       52.7     47.3            72.1
    ##  2 Balonne              30300           4379       49.7     50.3            63.4
    ##  3 Banana               30370          14663       48.3     51.7            62.9
    ##  4 Barcaldine           30410           2863       49.0     51.0            62.6
    ##  5 Barcoo               30450            312       46.5     53.5            67.9
    ##  6 Blackall Tambo       30760           1920       51.0     49.0            55.8
    ##  7 Boulia               30900            470       56.4     43.6            61.3
    ##  8 Brisbane             31000        1264024       50.4     49.6            69.2
    ##  9 Bulloo               31750            342       47.7     52.3            77.2
    ## 10 Bundaberg            31820         100118       50.6     49.4            57.9
    ## # ℹ 68 more rows
    ## # ℹ 1 more variable: med_house_inc_AUD <dbl>
…
#Checking results
townsville
```

    ## # A tibble: 72 × 6
    ##    TIME_PERIOD gender age_group number_ind age_class    year
    ##          <int> <chr>      <dbl>      <dbl> <chr>       <int>
    ##  1        2016 F              2       6403 0-4 years    2016
    ##  2        2016 M              2       6960 0-4 years    2016
    ##  3        2021 F              2       5481 0-4 years    2021
    ##  4        2021 M              2       6113 0-4 years    2021
    ##  5        2016 F              3       6654 5-9 years    2016
    ##  6        2016 M              3       6720 5-9 years    2016
    ##  7        2021 F              3       6231 5-9 years    2021
    ##  8        2021 M              3       6786 5-9 years    2021
    ##  9        2016 F              4       6055 10-14 years  2016
    ## 10        2016 M              4       6351 10-14 years  2016
    ## # ℹ 62 more rows
…
